com\epam\tat\framework\runner\StoriesRunner$1.class
com\epam\tat\framework\ui\Select.class
com\epam\tat\product\mailru\letter\bo\LetterBuilder.class
com\epam\tat\product\mailru\user\bo\User.class
com\epam\tat\framework\listeners\SuiteListener.class
com\epam\tat\product\mailru\cloud\folder\bo\Folder.class
com\epam\tat\product\mailru\common\screen\HeaderBarScreen.class
com\epam\tat\product\mailru\user\service\UserService.class
com\epam\tat\framework\listeners\WebDriverListener.class
com\epam\tat\test\ProfileCloudTest.class
com\epam\tat\product\mailru\cloud\folder\bo\FolderBuilder.class
com\epam\tat\test\LoginCloudTest.class
com\epam\tat\product\mailru\letter\bo\Letter.class
com\epam\tat\product\mailru\cloud\folder\service\FolderCloudService.class
com\epam\tat\product\mailru\cloud\folder\bo\FolderFactory.class
com\epam\tat\framework\appenders\testNG\TestNGReportAppender.class
com\epam\tat\test\LoginTest.class
com\epam\tat\framework\utils\Randoms.class
com\epam\tat\product\mailru\cloud\folder\screen\ProfileCloudPage.class
com\epam\tat\product\mailru\letter\service\LetterService.class
com\epam\tat\product\mailru\cloud\login\service\LoginCloudService.class
com\epam\tat\product\mailru\letter\bo\LetterFactory.class
com\epam\tat\framework\runner\Parameters.class
com\epam\tat\framework\listeners\TestListener.class
com\epam\tat\framework\ui\Element.class
com\epam\tat\product\mailru\common\screen\ErrorAuthorizeScreen.class
com\epam\tat\framework\logging\Log.class
com\epam\tat\product\mailru\cloud\folder\screen\extra\ProfileCloudStoreOfLocators.class
com\epam\tat\framework\runner\validate\ParallelModeValidate.class
com\epam\tat\framework\ui\WebDriverFactory$1.class
com\epam\tat\framework\ui\WebDriverFactory.class
com\epam\tat\framework\ui\BrowserType.class
com\epam\tat\product\mailru\cloud\folder\exception\CloudFolderException.class
com\epam\tat\product\mailru\user\screen\LoginPage.class
com\epam\tat\product\mailru\user\exception\MailruUserException.class
com\epam\tat\framework\steps\LoginTestSteps.class
com\epam\tat\product\mailru\cloud\folder\screen\extra\ProfileCloudStoreOfElements.class
com\epam\tat\product\mailru\cloud\folder\service\FolderCloudService$1.class
com\epam\tat\product\mailru\common\GlobalParameters.class
com\epam\tat\framework\runner\validate\SuiteValidate.class
com\epam\tat\product\mailru\cloud\login\exception\CloudLoginException.class
com\epam\tat\product\mailru\letter\screen\extra\ExtraStoreLocators.class
com\epam\tat\framework\runner\CommonTestRuntimeException.class
com\epam\tat\product\mailru\common\screen\AbstractLoginPage.class
com\epam\tat\product\mailru\user\bo\UserBuilder.class
com\epam\tat\product\mailru\letter\exception\MailruLetterException.class
com\epam\tat\test\LetterTest.class
com\epam\tat\framework\ui\Browser.class
com\epam\tat\product\mailru\letter\screen\ProfilePage.class
com\epam\tat\product\mailru\user\bo\UserFactory.class
com\epam\tat\framework\runner\Parameters$BrowserTypeConverter.class
com\epam\tat\framework\runner\ProductRunner.class
com\epam\tat\framework\runner\validate\ThreadCountValidate.class
com\epam\tat\product\mailru\cloud\login\screen\LoginCloudPage.class
com\epam\tat\framework\utils\DataProviderSource.class
com\epam\tat\product\mailru\cloud\login\screen\extra\LoginCloudStoreOfLocators.class
com\epam\tat\framework\runner\StoriesRunner.class
com\epam\tat\framework\steps\LetterTestSteps.class
